aceh	5	legenda magasang
aceh	5	magaseueng
aceh	12	kuburan belanda terluas
aceh	13	kue
aceh	28	peurise
bali	2	bahasa bahasa
bali	19	keris
bali	19	beragam ornamen perhiasan
bali	19	pakaian daerah bali
bali	25	seni
bali	31	tarian bali
banten	2	bahasa bahasa
banten	6	istana raja
banten	7	bantam
banten	7	palangka
banten	17	babad tanah jawi
banten	23	prasasti peninggalan kerajaan tarumanagara
banten	25	baduy
bengkulu	8	tabarena
gorontalo	2	bahasa bahasa
gorontalo	3	benteng bermakna masyarakat gorontalo teguh
gorontalo	3	kukuh mempertahankan harga diri
gorontalo	3	benteng bermakna masyarakat gorontalo teguh dan kukuh mempertahankan harga diri
gorontalo	7	kerajaan
gorontalo	7	tomini
gorontalo	11	lagu
gorontalo	12	makam rajanya
gorontalo	13	milu tongkol dan gogu
gorontalo	14	masjid
gorontalo	26	bentuk atap menyerupai pelana
gorontalo	26	bentuk rumah panggung
gorontalo	26	tiang pelaminan
gorontalo	26	gapura gorontalo telah dibuat
gorontalo	26	alikusu
jakarta	14	masjid agung al
jambi	6	aditywarman
jambi	7	kerajaan melayu jambi berikut
jambi	30	suku anak
jawa barat	2	bahasa mangl
jawa barat	7	pelabuhan
jawa barat	13	papais ada berbagai varian diantaranya papais biasa
jawa barat	23	prasasti peninggalan kerajaan tarumanagara
jawa barat	23	prasasti perjanjian sunda
jawa tengah	2	bahasa misah lulus ujian nyaneh kudu
jawa tengah	2	bahasa iraha nyaneh mangkat  kapan kamu pergi
jawa tengah	2	bahasa naha nyaneh telat  mengapa ia terlambat
jawa tengah	2	bahasa bahasa
jawa tengah	2	bahasa kongres
jawa tengah	2	bahasa april
jawa tengah	2	bahasa tegal tanggal
jawa tengah	2	bahasa tegalan
jawa tengah	2	bahasa timur
jawa tengah	2	bahasa laut
jawa tengah	4	prambanan
jawa tengah	4	candi peninggalan majapahit
jawa tengah	7	sunda
jawa tengah	7	kerajaan galuh abad
jawa tengah	12	makam kh
jawa tengah	25	festival memeden gadu
jawa tengah	25	festival oncor
jawa tengah	25	jepara bedug festival
jawa timur	2	bahasa indonesia
jawa timur	2	bahasa bahasa
jawa timur	4	trowulan
jawa timur	7	tengger
jawa timur	7	mataraman
jawa timur	12	islam
jawa timur	12	makam islam
jawa timur	12	makam presiden republik
jawa timur	13	jagung
jawa timur	30	suku osing banyuwangi
kalimantan barat	2	bahasa indonesia
kalimantan barat	2	bahasa bahasa
kalimantan barat	2	bahasa tiochiu
kalimantan barat	5	bekana
kalimantan barat	5	bejandeh
kalimantan barat	5	nyangahatn
kalimantan barat	5	pantun jepin
kalimantan barat	5	negeri sambas
kalimantan barat	5	brunei darussalam hikayat banjar
kalimantan barat	5	hikayat malaysia
kalimantan barat	7	oktober
kalimantan barat	7	lawai
kalimantan barat	7	kesultanan islam
kalimantan barat	13	kue lapis berbagai macam serta kue keranjang
kalimantan barat	13	nasi ayam dan mie pangsit
kalimantan barat	30	suku dayak mayoritas penduduknya
kalimantan barat	31	gong
kalimantan barat	31	gambus
kalimantan barat	31	tawaq
kalimantan barat	31	hadrah
kalimantan barat	31	sapek
kalimantan barat	31	balikan
kalimantan barat	31	kangkuang
kalimantan barat	31	keledik
kalimantan barat	31	rebab
kalimantan barat	31	kohotong
kalimantan barat	31	sollokanong terbuat
kalimantan barat	31	terah umat maka
kalimantan barat	31	mandau terbuat
kalimantan barat	31	tumbak
kalimantan barat	31	keris melayu
kalimantan barat	31	sumpit
kalimantan barat	31	senapang lantak
kalimantan barat	31	duhung
kalimantan barat	31	isou bacou
kalimantan barat	31	lunjuk
kalimantan barat	31	mandau
kalimantan barat	31	nyabor
kalimantan selatan	13	hulu sungai selatan
kalimantan selatan	13	buntut
kalimantan selatan	13	binuang
kalimantan selatan	16	sensapi
kalimantan selatan	26	rumah adat suku banjar disebut rumah bubungan tinggi
kalimantan selatan	26	rumah adat suku dayak bukit disebut balai
kalimantan selatan	30	suku mayoritas
kalimantan selatan	30	suku penduduk
kalimantan selatan	30	suku mayoritas dan penduduk
kalimantan selatan	30	suku terbesar kedua
kalimantan selatan	30	suku terbesar ketiga
kalimantan tengah	2	bahasa bahasa
kalimantan tengah	5	legenda suku dayak
kalimantan tengah	16	kacapi
kalimantan tengah	16	rebab
kalimantan tengah	16	sampe
kalimantan tengah	16	berbagai jenis gong
kalimantan tengah	16	kangkanung
kalimantan tengah	16	berbagai jenis kendang
kalimantan tengah	16	katambung
kalimantan tengah	31	tari hugo
kalimantan tengah	31	huda
kalimantan timur	2	bahasa pengantar masyarakat kalimantan timur
kalimantan timur	2	bahasa bahasa
kalimantan timur	11	balarut
kalimantan utara	7	lawai
kalimantan utara	7	agustus
kalimantan utara	7	mei
kepulauan bangka belitung	1	rudat
kepulauan bangka belitung	1	sekapur sirih
kepulauan bangka belitung	8	kolam pemandian air panas
kepulauan bangka belitung	13	song sui adalah
kepulauan riau	2	bahasa bahasa
kepulauan riau	8	island
kepulauan riau	8	lagoi
kepulauan riau	8	pantai
kepulauan riau	12	makam raja haji
kepulauan riau	16	musik melayu kepulauan riau
kepulauan riau	16	musik lang
kepulauan riau	20	patung dewi kwan im di
lampung	2	bahasa bahasa
lampung	3	benteng belanda
lampung	15	kain tapis saat
lampung	25	upacara adat pernikahan masyarakan lampung
maluku	14	masjid sebanyak hampir  ribu buah
maluku	24	pura sebanyak  buah
nusa tenggara timur	26	rumah adat
nusa tenggara timur	26	pasola
nusa tenggara timur	26	rumah adat dan pasola
papua	1	jekir
papua	2	bahasa indonesia
papua	2	bahasa bahasa
papua	2	bahasa biak numfor  iri
papua	7	kerajaan belanda
papua	7	presiden
papua	7	januari
papua	29	situs warisan dunia unesco
papua	31	asmat
riau	2	bahasa hokkien
riau	17	kitab seribu
riau	25	perayaan imlek
sulawesi selatan	2	bahasa konjo terbagi menjadi dua
sulawesi selatan	2	bahasa suku mandar
sulawesi selatan	2	bahasa tae
sulawesi tengah	2	bahasa bahasa
sulawesi tengah	25	duhunga
sulawesi tengah	25	tambi
sulawesi tengah	31	tari masyarakat
sulawesi tengah	31	in
sulawesi tenggara	7	kerajaan nusantara
sulawesi tenggara	7	onderafdeling
sulawesi tenggara	31	tari lulo tarian suku tolaki
sulawesi tenggara	31	tari dinggu tarian panen
sulawesi tenggara	31	tarian suku tolaki
sulawesi tenggara	31	tarian panen
sulawesi utara	12	islam
sulawesi utara	12	makam islam
sulawesi utara	12	kuburan belanda
sumatera barat	2	bahasa belanda
sumatera barat	16	musik sumatera barat
sumatera barat	26	rumah adat sumatera barat
sumatera barat	28	minang
sumatera utara	2	bahasa melayu dialek
sumatera utara	2	bahasa hokkian
sumatera utara	13	batak
sumatera utara	26	rumah adat etnis batak
yogyakarta	4	candi kalasan peninggalan budha tertua
yogyakarta	7	jawa
yogyakarta	7	kadipaten berwenang
yogyakarta	25	kraton
