item,itemLabel,extracted,found in wikidata not in extracted,found in extracted not in wikidata
http://www.wikidata.org/entity/Q5520017,Gamelan jegog,Polopalo,Gamelan jegog,Polopalo
http://www.wikidata.org/entity/Q3319384,moko,Gambusi,moko,Gambusi
http://www.wikidata.org/entity/Q12472139,Angklung,Gamelan Banjar,Angklung,Gamelan Banjar
http://www.wikidata.org/entity/Q4269382,Bulan Pejeng,Dambus,Bulan Pejeng,Dambus
http://www.wikidata.org/entity/Q12486450,Indang,Suling,Indang,Suling
http://www.wikidata.org/entity/Q30347664,Laba Toda,Gendang Melayu,Laba Toda,Gendang Melayu
http://www.wikidata.org/entity/Q30347637,Tembong,Rebana,Tembong,Rebana
http://www.wikidata.org/entity/Q1493069,gamelan gong kebyar,Rudat,,Rudat
,,Sekapur Sirih,0,Sekapur Sirih
,,gamelan gong gede,0,gamelan gong gede
,,gamelan Semar Pegulingan,0,gamelan Semar Pegulingan
,,Gamelan Gong Kebyar,0,
,,Tifa,0,Tifa
,,Jekir,0,Jekir
,,Tifa Dasar,0,Tifa Dasar
,,Tifa Potong,0,Tifa Potong
,,Tifa Jekir Potong,0,Tifa Jekir Potong
,,gamelan tabuan kenek,0,gamelan tabuan kenek
,,Produk Budaya,0,Produk Budaya
,,Pengiringnya,0,Pengiringnya
,,gong,0,gong
,,Calung,0,Calung
,,gamelan Jawa,0,gamelan Jawa
,,Gamelan Banyuwangi,0,Gamelan Banyuwangi
