item,itemLabel,extracted,found in wikidata not in extracted,found in extracted not in wikidata
http://www.wikidata.org/entity/Q3056346,Candi Pawon,Candi Jiwa,,Candi Jiwa
http://www.wikidata.org/entity/Q2735629,Candi Ceto,Candi Blandongan,,Candi Blandongan
http://www.wikidata.org/entity/Q4264437,Candi Sari,Candi Bumi Ayu,,Candi Bumi Ayu
http://www.wikidata.org/entity/Q4264442,Candi Banyunibo,Candi Prambanan,,Candi Prambanan
http://www.wikidata.org/entity/Q2746626,Candi Mendut,Candi Kalasan Peninggalan Budha tertua,,Candi Kalasan Peninggalan Budha tertua
http://www.wikidata.org/entity/Q12478284,Candi Tanjungmedan,Candi Ijo,Candi Tanjungmedan,Candi Ijo
http://www.wikidata.org/entity/Q42798, Candi Borobudur,Candi Abang,,Candi Abang
,,Candi Gampingan,0,Candi Gampingan
,,Candi Sari,0,
,,Candi Kedulan,0,Candi Kedulan
,,Candi Sambisari,0,Candi Sambisari
,,Candi Sorogedug,0,Candi Sorogedug
,,Candi Kimpulan,0,Candi Kimpulan
,,Candi Gembirowati,0,Candi Gembirowati
,,Candi Klodangan,0,Candi Klodangan
,,Candi Banyunibo,0,
,,Candi Morangan,0,Candi Morangan
,,Candi Risan,0,Candi Risan
,,Candi Palgading,0,Candi Palgading
,,Candi Watu Gudhig,0,Candi Watu Gudhig
,,Candi Dawangsari,0,Candi Dawangsari
,,Candi Miri,0,Candi Miri
,,Candi Keblak,0,Candi Keblak
,,Candi Gebang,0,Candi Gebang
,,Candi Barong,0,Candi Barong
,,Candi Pringtali,0,Candi Pringtali
,,Candi Plembutan,0,Candi Plembutan
,,Candi Muaro Jambi,0,Candi Muaro Jambi
,,Candi Angin,0,Candi Angin
,,Candi Borobudur,0,Candi Borobudur
,,Candi Mendut,0,
,,Candi Pawon,0,
,,Prambanan,0,Prambanan
,,candi peninggalan Majapahit,0,candi peninggalan Majapahit
,,Trowulan,0,Trowulan
,,Candi Penataran,0,Candi Penataran
,,Candi Agung,0,Candi Agung
,,Candi Muara Takus,0,Candi Muara Takus
,,Candi Tua,0,Candi Tua
,,Candi Bungsu,0,Candi Bungsu
,,Candi warna Putih,0,Candi warna Putih
,,Candi Cangkuang,0,Candi Cangkuang
,,Candi Bubrah,0,Candi Bubrah
,,Candi Sewu,0,Candi Sewu
,,Candi Plaosan,0,Candi Plaosan
,,Candi Merak,0,Candi Merak
,,Candi Ngempon,0,Candi Ngempon
,,Candi Klero,0,Candi Klero
,,Candi Dukuh,0,Candi Dukuh
,,Candi Pringsewu,0,Candi Pringsewu
,,Candi Tugu,0,Candi Tugu
,,Candi Sawentar,0,Candi Sawentar
,,Candi Plumbangan,0,Candi Plumbangan
,,Candi Simping,0,Candi Simping
,,Candi Tegowangi,0,Candi Tegowangi
,,Candi Surowono,0,Candi Surowono
,,Candi Slumpang Laren,0,Candi Slumpang Laren
,,Candi Sadon,0,Candi Sadon
,,Candi Simbatan,0,Candi Simbatan
,,Candi Kidal,0,Candi Kidal
,,Candi Singhasari,0,Candi Singhasari
,,Candi Jago,0,Candi Jago
,,Candi Singosari,0,Candi Singosari
,,Candi Singosari dan arca Dwarapala,0,Candi Singosari dan arca Dwarapala
,,Candi Ngetos,0,Candi Ngetos
,,Candi Lor,0,Candi Lor
,,Candi Burung,0,Candi Burung
,,Candi Dermo,0,Candi Dermo
,,Candi Mendalem,0,Candi Mendalem
,,Candi Pari,0,Candi Pari
,,Candi Sumur,0,Candi Sumur
,,Candi Tawangalun,0,Candi Tawangalun
,,Candi Setono Gedong,0,Candi Setono Gedong
,,Candi Laras Utara,0,Candi Laras Utara
,,Candi Laras Selatan,0,Candi Laras Selatan
,,Candi Sipamutung,0,Candi Sipamutung
,,Candi Tandihat,0,Candi Tandihat
,,Candi Sangkilon,0,Candi Sangkilon
,,Candi Ratu Boko,0,Candi Ratu Boko
,,Cepogo,0,Cepogo
,,Selo,0,Selo
,,Borobudur,0,Borobudur
,,SSB,0,SSB
,,Namanya,0,Namanya
,,Candi Lawang,0,Candi Lawang
,,Candi Kunthi,0,Candi Kunthi
,,Candi Umbul,0,Candi Umbul
,,Candi Trenggolek Paninggaran,0,Candi Trenggolek Paninggaran
,,Candi Sukuh,0,Candi Sukuh
,,Candi Cetho,0,Candi Cetho
,,Candi Monyet,0,Candi Monyet
,,Candi Arimbi,0,Candi Arimbi
,,Kidal,0,Kidal
,,Tumpang,0,Tumpang
,,Dau,0,Dau
,,Wagir,0,Wagir
,,Turen,0,Turen
,,Candi Tikus,0,Candi Tikus
,,Candi Bajang Ratu,0,Candi Bajang Ratu
,,Candi Brahu,0,Candi Brahu
,,Candi Gentong,0,Candi Gentong
,,Candi Wringin Lawang,0,Candi Wringin Lawang
,,candi Jabung,0,candi Jabung
,,Candi Gayatri,0,Candi Gayatri
,,Candi Dadi,0,Candi Dadi
,,Candi Cungkup,0,Candi Cungkup
,,Candi Sanggrahan,0,Candi Sanggrahan
,,candi Mirigambar,0,candi Mirigambar
,,Candi Bodho,0,Candi Bodho
,,Candi Penampihan,0,Candi Penampihan
,,candi era Kerajaan Kediri,0,candi era Kerajaan Kediri
,,Candi,0,Candi
,,Candi Laras,0,Candi Laras
,,Kuripan,0,Kuripan
,,Danau,0,Danau
