item,itemLabel,extracted,found in wikidata not in extracted,found in extracted not in wikidata
http://www.wikidata.org/entity/Q917699,Patung Yesus Memberkati,arca Dwarapala,Patung Yesus Memberkati,arca Dwarapala
,,Patung Mini,,Patung Mini
,,patung Gajah Putih,,patung Gajah Putih
,,Patung Dewi Kwan Im,,Patung Dewi Kwan Im
,,Patung Dewi Kwan Im di,,Patung Dewi Kwan Im di
,,Patung Satria Gatot Kaca,,Patung Satria Gatot Kaca
,,Patung Buddha Empat Wajah,,Patung Buddha Empat Wajah
,,Patung Joko Dolog,,Patung Joko Dolog
,,Patung Bekantan,,Patung Bekantan
,,Arca Manusia Purba,,Arca Manusia Purba
,,Patung Giok,,Patung Giok
,,Patung Barongan,,Patung Barongan
,,Patung Warak ngendok,,Patung Warak ngendok
,,Patung BARONGAN DEMAK,,Patung BARONGAN DEMAK
,,Patung Warak Ngendog,,Patung Warak Ngendog
,,arca Siwa,,arca Siwa
,,arca Ganesha,,arca Ganesha
,,Patung Maria,,Patung Maria
,,arca Wisnu,,arca Wisnu
,,Arca Joko Budhek,,Arca Joko Budhek
,,patung setengah dada Soeprijadi,,patung setengah dada Soeprijadi
,,merasap,,merasap
,,Pisak,,Pisak
,,Belas,,Belas
,,Km,,Km
,,Patung Bunda Maria,,Patung Bunda Maria
,,patung Bung Karno,,patung Bung Karno
,,Patung Yesus,,Patung Yesus
