item,itemLabel,extracted,found in wikidata not in extracted,found in extracted not in wikidata
http://www.wikidata.org/entity/Q7260781,Pura Dalem Agung Padangtegal,Pura Jagatnata Banjarmasin,Pura Dalem Agung Padangtegal,Pura Jagatnata Banjarmasin
http://www.wikidata.org/entity/Q1028566,Pura Taman Ayun,Pura sebanyak  buah,,Pura sebanyak  buah
http://www.wikidata.org/entity/Q7809287,Pura Tirta Empul,Pura Tanah Lot,Pura Tirta Empul,Pura Tanah Lot
,,Pura Besakih,,Pura Besakih
,,Pura Adhitya Jaya,,Pura Adhitya Jaya
,,Pura Segara,,Pura Segara
,,Pura Mangkunegaran,,Pura Mangkunegaran
,,Pura Penataran Puspem Badung,,Pura Penataran Puspem Badung
,,Pura Peti Tenget,,Pura Peti Tenget
,,Pura Pucak Tedung,,Pura Pucak Tedung
,,Pura Sadha,,Pura Sadha
,,Pura Taman Ayun,,
,,Pura Uluwatu,,Pura Uluwatu
,,Pura Dalem Jawa,,Pura Dalem Jawa
,,Pura Kehen,,Pura Kehen
,,Pura Rambut Siwi,,Pura Rambut Siwi
,,Pura Jati,,Pura Jati
,,Pura Majapahit,,Pura Majapahit
,,Pura Lempuyang,,Pura Lempuyang
,,Pura Ulun Danu Bratan,,Pura Ulun Danu Bratan
,,Pura Batukaru,,Pura Batukaru
,,Pura Agung Jagatnatha,,Pura Agung Jagatnatha
,,Pura Sakenan,,Pura Sakenan
,,Pura dalam tahap pembangunan,,Pura dalam tahap pembangunan
,,Pura Parhyangan Agung Jagatkartta,,Pura Parhyangan Agung Jagatkartta
,,Pura Giri Kusuma,,Pura Giri Kusuma
,,Pura Jagad Karana,,Pura Jagad Karana
,,Pura Giri Jaya Natha,,Pura Giri Jaya Natha
,,Pura Giri Sutra Mandala Gadingrejo,,Pura Giri Sutra Mandala Gadingrejo
,,Pura Lugusari Pagelaran,,Pura Lugusari Pagelaran
,,Pura Kerti Bhuana,,Pura Kerti Bhuana
,,Pura Agung Raksa Buana,,Pura Agung Raksa Buana
,,pura Pulaki,,pura Pulaki
,,Pura Goa Lawah,,Pura Goa Lawah
,,Pura Mangkunagaran,,Pura Mangkunagaran
,,Pura hindu Penataran Luhur Kamulan Menganti,,Pura hindu Penataran Luhur Kamulan Menganti
,,Pura Watu Klosot,,Pura Watu Klosot
