instance;name
http://dbpedia.org/resource/Agung;Agung
http://dbpedia.org/resource/Angklung;Angklung
http://dbpedia.org/resource/Bedug;Bedug
http://dbpedia.org/resource/Beleganjur;Beleganjur
http://dbpedia.org/resource/Cak_(instrument);Cak (instrument)
http://dbpedia.org/resource/Calung;Calung
http://dbpedia.org/resource/Cekuntrung;Cekuntrung
http://dbpedia.org/resource/Cuk_(instrument);Cuk (instrument)
http://dbpedia.org/resource/Gamelan_Gadhon;Gamelan Gadhon
http://dbpedia.org/resource/Gamelan_Sekaten;Gamelan Sekaten
http://dbpedia.org/resource/Gamelan_Siteran;Gamelan Siteran
http://dbpedia.org/resource/Gamelan_Surakarta;Gamelan Surakarta
http://dbpedia.org/resource/Gamelan_bebonangan;Gamelan bebonangan
http://dbpedia.org/resource/Gamelan_degung;Gamelan degung
http://dbpedia.org/resource/Gamelan_gender_wayang;Gamelan gender wayang
http://dbpedia.org/resource/Gamelan_gong_gede;Gamelan gong gede
http://dbpedia.org/resource/Gamelan_gong_kebyar;Gamelan gong kebyar
http://dbpedia.org/resource/Gamelan_jegog;Gamelan jegog
http://dbpedia.org/resource/Gamelan_joged_bumbung;Gamelan joged bumbung
http://dbpedia.org/resource/Gamelan_salendro;Gamelan salendro
http://dbpedia.org/resource/Gamelan_semar_pegulingan;Gamelan semar pegulingan
http://dbpedia.org/resource/Gangsa;Gangsa
http://dbpedia.org/resource/Genggong;Genggong
http://dbpedia.org/resource/Gong;Gong
http://dbpedia.org/resource/Hasapi;Hasapi
http://dbpedia.org/resource/Kacapi;Kacapi
http://dbpedia.org/resource/Karinding;Karinding
http://dbpedia.org/resource/Kecer;Kecer
http://dbpedia.org/resource/Kemanak;Kemanak
http://dbpedia.org/resource/Kepyak;Kepyak
http://dbpedia.org/resource/Kliningan;Kliningan
http://dbpedia.org/resource/Kongahyan;Kongahyan
http://dbpedia.org/resource/Kroncong;Kroncong
http://dbpedia.org/resource/Kulintang;Kulintang
http://dbpedia.org/resource/Malay_Gamelan;Malay Gamelan
http://dbpedia.org/resource/Mirwas;Mirwas
http://dbpedia.org/resource/Moko_drum;Moko drum
http://dbpedia.org/resource/Moon_of_Pejeng;Moon of Pejeng
http://dbpedia.org/resource/Munggang;Munggang
http://dbpedia.org/resource/Qanbūs;Qanbūs
http://dbpedia.org/resource/Rebana;Rebana
http://dbpedia.org/resource/Reyong;Reyong
http://dbpedia.org/resource/Saluang;Saluang
http://dbpedia.org/resource/Sapeh;Sapeh
http://dbpedia.org/resource/Sasando;Sasando
http://dbpedia.org/resource/Slentho;Slentho
http://dbpedia.org/resource/Suling;Suling
http://dbpedia.org/resource/Talempong;Talempong
http://dbpedia.org/resource/Ugal;Ugal
