instance;name
http://dbpedia.org/resource/Panji_(prince);Panji (prince)
http://dbpedia.org/resource/Pontianak_(folklore);Pontianak (folklore)
http://dbpedia.org/resource/Ameta;Ameta
http://dbpedia.org/resource/Hainuwele;Hainuwele
http://dbpedia.org/resource/Silewe_Nazarate;Silewe Nazarate
http://dbpedia.org/resource/Nyai_Roro_Kidul;Nyai Roro Kidul
http://dbpedia.org/resource/Folklore_of_Indonesia;Folklore of Indonesia
http://dbpedia.org/resource/Dewi_Sri;Dewi Sri
http://dbpedia.org/resource/Kancil_Story;Kancil Story
http://dbpedia.org/resource/Ratu_Adil;Ratu Adil
http://dbpedia.org/resource/Pocong;Pocong
http://dbpedia.org/resource/Ebu_gogo;Ebu gogo
http://dbpedia.org/resource/The_king_of_the_parakeets;The king of the parakeets
http://dbpedia.org/resource/O_Tokata;O Tokata
http://dbpedia.org/resource/Satu_Suro;Satu Suro
http://dbpedia.org/resource/Bawang_Merah_Bawang_Putih;Bawang Merah Bawang Putih
http://dbpedia.org/resource/Banta_Berensyah;Banta Berensyah
http://dbpedia.org/resource/Suanggi;Suanggi
http://dbpedia.org/resource/Langsuyar;Langsuyar
http://dbpedia.org/resource/Putri_Tangguk;Putri Tangguk
http://dbpedia.org/resource/Totok_Kerot;Totok Kerot
http://dbpedia.org/resource/Siamang_putih;Siamang putih
http://dbpedia.org/resource/Watu_Gunung;Watu Gunung
http://dbpedia.org/resource/Kuntilanak;Kuntilanak
http://dbpedia.org/resource/Aji_Saka;Aji Saka
http://dbpedia.org/resource/Keong_Emas;Keong Emas
http://dbpedia.org/resource/Warak_ngendog;Warak ngendog
http://dbpedia.org/resource/Sri_Baduga_Maharaja;Sri Baduga Maharaja
http://dbpedia.org/resource/Singa_(mythology);Singa (mythology)
http://dbpedia.org/resource/Barong_(mythology);Barong (mythology)
http://dbpedia.org/resource/Leyak;Leyak
http://dbpedia.org/resource/Pattani_Kingdom;Pattani Kingdom
http://dbpedia.org/resource/Jenglot;Jenglot
http://dbpedia.org/resource/Batara_Guru;Batara Guru
http://dbpedia.org/resource/Damarwulan;Damarwulan
http://dbpedia.org/resource/Malin_Kundang;Malin Kundang
http://dbpedia.org/resource/Raksasa;Raksasa
http://dbpedia.org/resource/Hikayat_Hang_Tuah;Hikayat Hang Tuah
http://dbpedia.org/resource/Toyol;Toyol
http://dbpedia.org/resource/Mundinglaya_Dikusumah;Mundinglaya Dikusumah
http://dbpedia.org/resource/Si_Pitung;Si Pitung
http://dbpedia.org/resource/Merong_Mahawangsa;Merong Mahawangsa
http://dbpedia.org/resource/Sabai_Nan_Aluih;Sabai Nan Aluih
http://dbpedia.org/resource/Hantu_Air;Hantu Air
http://dbpedia.org/resource/Minangkabau_(legend);Minangkabau (legend)
http://dbpedia.org/resource/Ciung_Wanara;Ciung Wanara
http://dbpedia.org/resource/Lutung_Kasarung;Lutung Kasarung
http://dbpedia.org/resource/Sangkuriang;Sangkuriang
http://dbpedia.org/resource/Roro_Jonggrang;Roro Jonggrang
http://dbpedia.org/resource/Sri_Tanjung;Sri Tanjung
http://dbpedia.org/resource/Ngelawang;Ngelawang
http://dbpedia.org/resource/Leungli;Leungli
http://dbpedia.org/resource/Kabayan;Kabayan
http://dbpedia.org/resource/Timun_Mas;Timun Mas
