instance;name
http://dbpedia.org/resource/Acar;Acar
http://dbpedia.org/resource/Amplang;Amplang
http://dbpedia.org/resource/Ampo_snack;Ampo snack
http://dbpedia.org/resource/Andaliman;Andaliman
http://dbpedia.org/resource/Anker_Beer;Anker Beer
http://dbpedia.org/resource/Apam_balik;Apam balik
http://dbpedia.org/resource/Arem-arem;Arem-arem
http://dbpedia.org/resource/Arsik;Arsik
http://dbpedia.org/resource/Asam_pedas;Asam pedas
http://dbpedia.org/resource/Asinan;Asinan
http://dbpedia.org/resource/Ayam_bakar;Ayam bakar
http://dbpedia.org/resource/Ayam_goreng;Ayam goreng
http://dbpedia.org/resource/Ayam_masak_kicap;Ayam masak kicap
http://dbpedia.org/resource/Ayam_penyet;Ayam penyet
http://dbpedia.org/resource/Ayam_taliwang;Ayam taliwang
http://dbpedia.org/resource/Babi_kecap;Babi kecap
http://dbpedia.org/resource/Babi_panggang;Babi panggang
http://dbpedia.org/resource/Bagea;Bagea
http://dbpedia.org/resource/Bajigur;Bajigur
http://dbpedia.org/resource/Bakmi;Bakmi
http://dbpedia.org/resource/Bakpau;Bakpau
http://dbpedia.org/resource/Bakpia;Bakpia
http://dbpedia.org/resource/Bakpia_Pathok;Bakpia Pathok
http://dbpedia.org/resource/Bakso;Bakso
http://dbpedia.org/resource/Bakwan;Bakwan
http://dbpedia.org/resource/Bali_Hai_Beer;Bali Hai Beer
http://dbpedia.org/resource/Balinese_cuisine;Balinese cuisine
http://dbpedia.org/resource/Banana_cake;Banana cake
http://dbpedia.org/resource/Bandrek;Bandrek
http://dbpedia.org/resource/Batagor;Batagor
http://dbpedia.org/resource/Batak_cuisine;Batak cuisine
http://dbpedia.org/resource/Beef_brain;Beef brain
http://dbpedia.org/resource/Beef_kway_teow;Beef kway teow
http://dbpedia.org/resource/Beer_in_Indonesia;Beer in Indonesia
http://dbpedia.org/resource/Bekasang;Bekasang
http://dbpedia.org/resource/Betutu;Betutu
http://dbpedia.org/resource/Bika_Ambon;Bika Ambon
http://dbpedia.org/resource/Bintang_Beer;Bintang Beer
http://dbpedia.org/resource/Borassus_flabellifer;Borassus flabellifer
http://dbpedia.org/resource/Botok;Botok
http://dbpedia.org/resource/Brem;Brem
http://dbpedia.org/resource/Brenebon;Brenebon
http://dbpedia.org/resource/Bubur_ayam;Bubur ayam
http://dbpedia.org/resource/Bubur_kacang_hijau;Bubur kacang hijau
http://dbpedia.org/resource/Bubur_ketan_hitam;Bubur ketan hitam
http://dbpedia.org/resource/Bubur_pedas;Bubur pedas
http://dbpedia.org/resource/Bumbu_(seasoning);Bumbu (seasoning)
http://dbpedia.org/resource/Buntil;Buntil
http://dbpedia.org/resource/Burasa;Burasa
http://dbpedia.org/resource/Cakalang_fufu;Cakalang fufu
http://dbpedia.org/resource/Cap_cai;Cap cai
http://dbpedia.org/resource/Cardamom;Cardamom
http://dbpedia.org/resource/Cendol;Cendol
http://dbpedia.org/resource/Char_siu;Char siu
http://dbpedia.org/resource/Chicken_feet;Chicken feet
http://dbpedia.org/resource/Chinese_Indonesian_cuisine;Chinese Indonesian cuisine
http://dbpedia.org/resource/Cimpa;Cimpa
http://dbpedia.org/resource/Clorot;Clorot
http://dbpedia.org/resource/Coconut_jam;Coconut jam
http://dbpedia.org/resource/Coconut_rice;Coconut rice
http://dbpedia.org/resource/Coffee_production_in_Indonesia;Coffee production in Indonesia
http://dbpedia.org/resource/Colo-colo_(condiment);Colo-colo (condiment)
http://dbpedia.org/resource/Corn_cookie;Corn cookie
http://dbpedia.org/resource/Coto_Makassar;Coto Makassar
http://dbpedia.org/resource/Crab_in_Padang_sauce;Crab in Padang sauce
http://dbpedia.org/resource/Crab_in_oyster_sauce;Crab in oyster sauce
http://dbpedia.org/resource/Cubeb;Cubeb
http://dbpedia.org/resource/Curry;Curry
http://dbpedia.org/resource/Dabu-dabu;Dabu-dabu
http://dbpedia.org/resource/Dadar_gulung;Dadar gulung
http://dbpedia.org/resource/Dadiah;Dadiah
http://dbpedia.org/resource/Daging;Daging
http://dbpedia.org/resource/Dali_ni_Horbo;Dali ni Horbo
http://dbpedia.org/resource/Daun_ubi_tumbuk;Daun ubi tumbuk
http://dbpedia.org/resource/Delta_Djakarta;Delta Djakarta
http://dbpedia.org/resource/Dendeng;Dendeng
http://dbpedia.org/resource/Dengke_mas_na_niura;Dengke mas na niura
http://dbpedia.org/resource/Din_Tai_Fung;Din Tai Fung
http://dbpedia.org/resource/Docang;Docang
http://dbpedia.org/resource/Dodol;Dodol
http://dbpedia.org/resource/Douchi;Douchi
http://dbpedia.org/resource/Egg_foo_young;Egg foo young
http://dbpedia.org/resource/Empal_gentong;Empal gentong
http://dbpedia.org/resource/Empal_gepuk;Empal gepuk
http://dbpedia.org/resource/Emping;Emping
http://dbpedia.org/resource/Es_Teler_77;Es Teler 77
http://dbpedia.org/resource/Es_bir;Es bir
http://dbpedia.org/resource/Es_buah;Es buah
http://dbpedia.org/resource/Es_campur;Es campur
http://dbpedia.org/resource/Es_doger;Es doger
http://dbpedia.org/resource/Es_goyobod;Es goyobod
http://dbpedia.org/resource/Es_kelapa_muda;Es kelapa muda
http://dbpedia.org/resource/Es_teler;Es teler
http://dbpedia.org/resource/Fish_ball;Fish ball
http://dbpedia.org/resource/Fish_cracker;Fish cracker
http://dbpedia.org/resource/Fritter;Fritter
http://dbpedia.org/resource/Gado-gado;Gado-gado
http://dbpedia.org/resource/Galangal;Galangal
http://dbpedia.org/resource/Gaplek;Gaplek
http://dbpedia.org/resource/Geplak;Geplak
http://dbpedia.org/resource/Gethuk;Gethuk
http://dbpedia.org/resource/Ginger_tea;Ginger tea
http://dbpedia.org/resource/Gnetum_gnemon;Gnetum gnemon
http://dbpedia.org/resource/Grass_jelly;Grass jelly
http://dbpedia.org/resource/Gudeg;Gudeg
http://dbpedia.org/resource/Gulai;Gulai
http://dbpedia.org/resource/Gulai_Ayam;Gulai Ayam
http://dbpedia.org/resource/HokBen;HokBen
http://dbpedia.org/resource/Iga_penyet;Iga penyet
http://dbpedia.org/resource/Ikan_bakar;Ikan bakar
http://dbpedia.org/resource/Ikan_goreng;Ikan goreng
http://dbpedia.org/resource/Indomie;Indomie
http://dbpedia.org/resource/Indonesian_cuisine;Indonesian cuisine
http://dbpedia.org/resource/Itak_Gurgur;Itak Gurgur
http://dbpedia.org/resource/Javanese_cuisine;Javanese cuisine
http://dbpedia.org/resource/Jemput-jemput;Jemput-jemput
http://dbpedia.org/resource/Kaasstengels;Kaasstengels
http://dbpedia.org/resource/Kaledo_(soup);Kaledo (soup)
http://dbpedia.org/resource/Karedok;Karedok
http://dbpedia.org/resource/Katemak;Katemak
http://dbpedia.org/resource/Kelan_Antep;Kelan Antep
http://dbpedia.org/resource/Kembang_Goyang;Kembang Goyang
http://dbpedia.org/resource/Kemplang;Kemplang
http://dbpedia.org/resource/Kerak_telor;Kerak telor
http://dbpedia.org/resource/Keripik_sanjay;Keripik sanjay
http://dbpedia.org/resource/Ketoprak_(dish);Ketoprak (dish)
http://dbpedia.org/resource/Ketupat;Ketupat
http://dbpedia.org/resource/Kidu;Kidu
http://dbpedia.org/resource/Klanting;Klanting
http://dbpedia.org/resource/Klappertaart;Klappertaart
http://dbpedia.org/resource/Klepon;Klepon
http://dbpedia.org/resource/Kolak;Kolak
http://dbpedia.org/resource/Konro;Konro
http://dbpedia.org/resource/Kopi_Luwak;Kopi Luwak
http://dbpedia.org/resource/Kopi_tiam;Kopi tiam
http://dbpedia.org/resource/Kopyor_coconut;Kopyor coconut
http://dbpedia.org/resource/Krechek;Krechek
http://dbpedia.org/resource/Kripik;Kripik
http://dbpedia.org/resource/Krupuk;Krupuk
http://dbpedia.org/resource/Krupuk_kulit;Krupuk kulit
http://dbpedia.org/resource/Krupuk_tanah;Krupuk tanah
http://dbpedia.org/resource/Kue;Kue
http://dbpedia.org/resource/Kue_ape;Kue ape
http://dbpedia.org/resource/Kue_bugis;Kue bugis
http://dbpedia.org/resource/Kue_cubit;Kue cubit
http://dbpedia.org/resource/Kue_cucur;Kue cucur
http://dbpedia.org/resource/Kue_gapit;Kue gapit
http://dbpedia.org/resource/Kue_lapis;Kue lapis
http://dbpedia.org/resource/Kue_mangkok;Kue mangkok
http://dbpedia.org/resource/Kue_putu;Kue putu
http://dbpedia.org/resource/Kue_putu_mangkok;Kue putu mangkok
http://dbpedia.org/resource/Kue_satu;Kue satu
http://dbpedia.org/resource/Kuih;Kuih
http://dbpedia.org/resource/Kuluban;Kuluban
http://dbpedia.org/resource/Kwetiau_goreng;Kwetiau goreng
http://dbpedia.org/resource/Laksa;Laksa
http://dbpedia.org/resource/Lalab;Lalab
http://dbpedia.org/resource/Lampet;Lampet
http://dbpedia.org/resource/Lawar_(food);Lawar (food)
http://dbpedia.org/resource/Lemang;Lemang
http://dbpedia.org/resource/Lemper;Lemper
http://dbpedia.org/resource/Lepet;Lepet
http://dbpedia.org/resource/Limnocharis_flava;Limnocharis flava
http://dbpedia.org/resource/List_of_Indonesian_dishes;List of Indonesian dishes
http://dbpedia.org/resource/List_of_Indonesian_drinks;List of Indonesian drinks
http://dbpedia.org/resource/List_of_Indonesian_soups;List of Indonesian soups
http://dbpedia.org/resource/Lontong;Lontong
http://dbpedia.org/resource/Lontong_Cap_Go_Meh;Lontong Cap Go Meh
http://dbpedia.org/resource/Lontong_dekem;Lontong dekem
http://dbpedia.org/resource/Lumpia;Lumpia
http://dbpedia.org/resource/Lupis_(food);Lupis (food)
http://dbpedia.org/resource/Malay_cuisine;Malay cuisine
http://dbpedia.org/resource/Manado_cuisine;Manado cuisine
http://dbpedia.org/resource/Manok_pansoh;Manok pansoh
http://dbpedia.org/resource/Manuk_Napinadar;Manuk Napinadar
http://dbpedia.org/resource/Marsilea_crenata;Marsilea crenata
http://dbpedia.org/resource/Mi_caluk;Mi caluk
http://dbpedia.org/resource/Mi_rebus;Mi rebus
http://dbpedia.org/resource/Mie_aceh;Mie aceh
http://dbpedia.org/resource/Mie_ayam;Mie ayam
http://dbpedia.org/resource/Mie_celor;Mie celor
http://dbpedia.org/resource/Mie_goreng;Mie goreng
http://dbpedia.org/resource/Mie_kangkung;Mie kangkung
http://dbpedia.org/resource/Mie_kering;Mie kering
http://dbpedia.org/resource/Mie_koclok;Mie koclok
http://dbpedia.org/resource/Mie_kocok;Mie kocok
http://dbpedia.org/resource/Murtabak;Murtabak
http://dbpedia.org/resource/Na_tinombur;Na tinombur
http://dbpedia.org/resource/Nagasari;Nagasari
http://dbpedia.org/resource/Nasi_Kapau;Nasi Kapau
http://dbpedia.org/resource/Nasi_Padang;Nasi Padang
http://dbpedia.org/resource/Nasi_ambeng;Nasi ambeng
http://dbpedia.org/resource/Nasi_bakar;Nasi bakar
http://dbpedia.org/resource/Nasi_bogana;Nasi bogana
http://dbpedia.org/resource/Nasi_campur;Nasi campur
http://dbpedia.org/resource/Nasi_dagang;Nasi dagang
http://dbpedia.org/resource/Nasi_goreng;Nasi goreng
http://dbpedia.org/resource/Nasi_gurih;Nasi gurih
http://dbpedia.org/resource/Nasi_kebuli;Nasi kebuli
http://dbpedia.org/resource/Nasi_kucing;Nasi kucing
http://dbpedia.org/resource/Nasi_kuning;Nasi kuning
http://dbpedia.org/resource/Nasi_liwet;Nasi liwet
http://dbpedia.org/resource/Nasi_pecel;Nasi pecel
http://dbpedia.org/resource/Nasi_tim;Nasi tim
http://dbpedia.org/resource/Nasi_timbel;Nasi timbel
http://dbpedia.org/resource/Nasi_uduk;Nasi uduk
http://dbpedia.org/resource/Nasi_ulam;Nasi ulam
http://dbpedia.org/resource/Okra_soup;Okra soup
http://dbpedia.org/resource/Ombusombus;Ombusombus
http://dbpedia.org/resource/Oncom;Oncom
http://dbpedia.org/resource/Opor;Opor
http://dbpedia.org/resource/Opor_ayam;Opor ayam
http://dbpedia.org/resource/Otak-otak;Otak-otak
http://dbpedia.org/resource/Oxtail_soup;Oxtail soup
http://dbpedia.org/resource/Padang_cuisine;Padang cuisine
http://dbpedia.org/resource/Pagit-pagit;Pagit-pagit
http://dbpedia.org/resource/Pallubasa;Pallubasa
http://dbpedia.org/resource/Pandan_cake;Pandan cake
http://dbpedia.org/resource/Pandanus_conoideus;Pandanus conoideus
http://dbpedia.org/resource/Paniki;Paniki
http://dbpedia.org/resource/Papeda_(food);Papeda (food)
http://dbpedia.org/resource/Peanut_sauce;Peanut sauce
http://dbpedia.org/resource/Pecel;Pecel
http://dbpedia.org/resource/Pecel_Lele;Pecel Lele
http://dbpedia.org/resource/Pempek;Pempek
http://dbpedia.org/resource/Pentol;Pentol
http://dbpedia.org/resource/Pepes;Pepes
http://dbpedia.org/resource/Peranakan_cuisine;Peranakan cuisine
http://dbpedia.org/resource/Perkedel;Perkedel
http://dbpedia.org/resource/Pig_roast;Pig roast
http://dbpedia.org/resource/Pineapple_tart;Pineapple tart
http://dbpedia.org/resource/Pisang_goreng;Pisang goreng
http://dbpedia.org/resource/Plecing_ayam;Plecing ayam
http://dbpedia.org/resource/Plecing_kangkung;Plecing kangkung
http://dbpedia.org/resource/Poffertjes;Poffertjes
http://dbpedia.org/resource/Pohulpohul;Pohulpohul
http://dbpedia.org/resource/Prawn_cracker;Prawn cracker
http://dbpedia.org/resource/Putri_salju;Putri salju
http://dbpedia.org/resource/Putu_mayam;Putu mayam
http://dbpedia.org/resource/Rambak_petis;Rambak petis
http://dbpedia.org/resource/Rawon;Rawon
http://dbpedia.org/resource/Rempeyek;Rempeyek
http://dbpedia.org/resource/Rendang;Rendang
http://dbpedia.org/resource/Rengginang;Rengginang
http://dbpedia.org/resource/Rica-rica;Rica-rica
http://dbpedia.org/resource/Rice_cake;Rice cake
http://dbpedia.org/resource/Rijsttafel;Rijsttafel
http://dbpedia.org/resource/Rojak;Rojak
http://dbpedia.org/resource/Roti_buaya;Roti buaya
http://dbpedia.org/resource/Roti_canai;Roti canai
http://dbpedia.org/resource/Saksang;Saksang
http://dbpedia.org/resource/Sambal;Sambal
http://dbpedia.org/resource/Sambal_Tuktuk;Sambal Tuktuk
http://dbpedia.org/resource/San_Miguel_Brewery;San Miguel Brewery
http://dbpedia.org/resource/Sasagun;Sasagun
http://dbpedia.org/resource/Satay;Satay
http://dbpedia.org/resource/Sate_Bandeng;Sate Bandeng
http://dbpedia.org/resource/Sate_Lilit;Sate Lilit
http://dbpedia.org/resource/Sate_Padang;Sate Padang
http://dbpedia.org/resource/Sate_kambing;Sate kambing
http://dbpedia.org/resource/Sayur_asem;Sayur asem
http://dbpedia.org/resource/Sayur_lodeh;Sayur lodeh
http://dbpedia.org/resource/Se'i;Se'i
http://dbpedia.org/resource/Sea_cucumber;Sea cucumber
http://dbpedia.org/resource/Sea_cucumber_as_food;Sea cucumber as food
http://dbpedia.org/resource/Seblak;Seblak
http://dbpedia.org/resource/Sega_Jamblang;Sega Jamblang
http://dbpedia.org/resource/Sega_lengko;Sega lengko
http://dbpedia.org/resource/Sekba;Sekba
http://dbpedia.org/resource/Sekoteng;Sekoteng
http://dbpedia.org/resource/Selat_solo;Selat solo
http://dbpedia.org/resource/Semprong;Semprong
http://dbpedia.org/resource/Semur_(Indonesian_stew);Semur (Indonesian stew)
http://dbpedia.org/resource/Serabi;Serabi
http://dbpedia.org/resource/Serundeng;Serundeng
http://dbpedia.org/resource/Shrimp_paste;Shrimp paste
http://dbpedia.org/resource/Siomay;Siomay
http://dbpedia.org/resource/Sop_saudara;Sop saudara
http://dbpedia.org/resource/Soto_(food);Soto (food)
http://dbpedia.org/resource/Soto_ayam;Soto ayam
http://dbpedia.org/resource/Soto_mie;Soto mie
http://dbpedia.org/resource/Spekkoek;Spekkoek
http://dbpedia.org/resource/Squab_as_food;Squab as food
http://dbpedia.org/resource/Steamed_rice;Steamed rice
http://dbpedia.org/resource/Stinky_tofu;Stinky tofu
http://dbpedia.org/resource/Stir_fried_water_spinach;Stir fried water spinach
http://dbpedia.org/resource/Street_food_of_Indonesia;Street food of Indonesia
http://dbpedia.org/resource/Suckling_pig;Suckling pig
http://dbpedia.org/resource/Sundanese_cuisine;Sundanese cuisine
http://dbpedia.org/resource/Sup_kambing;Sup kambing
http://dbpedia.org/resource/Sweet_soy_sauce;Sweet soy sauce
http://dbpedia.org/resource/Swikee;Swikee
http://dbpedia.org/resource/Tahu_gejrot;Tahu gejrot
http://dbpedia.org/resource/Tahu_goreng;Tahu goreng
http://dbpedia.org/resource/Tahu_sumedang;Tahu sumedang
http://dbpedia.org/resource/Tapai;Tapai
http://dbpedia.org/resource/Tauco;Tauco
http://dbpedia.org/resource/Tauge_goreng;Tauge goreng
http://dbpedia.org/resource/Teh_botol;Teh botol
http://dbpedia.org/resource/Teh_talua;Teh talua
http://dbpedia.org/resource/Tekwan;Tekwan
http://dbpedia.org/resource/Telur_pindang;Telur pindang
http://dbpedia.org/resource/Tempeh;Tempeh
http://dbpedia.org/resource/Tempoyak;Tempoyak
http://dbpedia.org/resource/Tendon_as_food;Tendon as food
http://dbpedia.org/resource/The_Dodol_Depok;The Dodol Depok
http://dbpedia.org/resource/Ting_Ting_Jahe;Ting Ting Jahe
http://dbpedia.org/resource/Tinutuan;Tinutuan
http://dbpedia.org/resource/Tipat_cantok;Tipat cantok
http://dbpedia.org/resource/Tipatipa;Tipatipa
http://dbpedia.org/resource/Tongseng;Tongseng
http://dbpedia.org/resource/Trancam;Trancam
http://dbpedia.org/resource/Trepanging;Trepanging
http://dbpedia.org/resource/Tumpeng;Tumpeng
http://dbpedia.org/resource/Urap;Urap
http://dbpedia.org/resource/Wajik;Wajik
http://dbpedia.org/resource/Warung;Warung
http://dbpedia.org/resource/Wedang_Jahe;Wedang Jahe
http://dbpedia.org/resource/Wingko;Wingko
http://dbpedia.org/resource/Woku;Woku
