"instance","name"
"http://dbpedia.org/resource/Al-Irsyad_Mosque","Al-Irsyad Mosque"
"http://dbpedia.org/resource/Al-Ittihad_Mosque_Jatibarang","Al-Ittihad Mosque Jatibarang"
"http://dbpedia.org/resource/Al-Makmur_Mosque","Al-Makmur Mosque"
"http://dbpedia.org/resource/Ampel_Mosque","Ampel Mosque"
"http://dbpedia.org/resource/An-Nur_Great_Mosque_Pekanbaru","An-Nur Great Mosque Pekanbaru"
"http://dbpedia.org/resource/Azizi_Mosque","Azizi Mosque"
"http://dbpedia.org/resource/Baiturrahman_Grand_Mosque","Baiturrahman Grand Mosque"
"http://dbpedia.org/resource/Bayan_Beleq_Mosque","Bayan Beleq Mosque"
"http://dbpedia.org/resource/Cut_Mutiah_Mosque","Cut Mutiah Mosque"
"http://dbpedia.org/resource/Demak_Great_Mosque","Demak Great Mosque"
"http://dbpedia.org/resource/Ganting_Grand_Mosque","Ganting Grand Mosque"
"http://dbpedia.org/resource/Grand_Mosque_of_Bandung","Grand Mosque of Bandung"
"http://dbpedia.org/resource/Grand_Mosque_of_West_Sumatra","Grand Mosque of West Sumatra"
"http://dbpedia.org/resource/Grand_Mosque_of_the_Sultan_of_Riau","Grand Mosque of the Sultan of Riau"
"http://dbpedia.org/resource/Great_Mosque_of_Banten","Great Mosque of Banten"
"http://dbpedia.org/resource/Great_Mosque_of_Central_Java","Great Mosque of Central Java"
"http://dbpedia.org/resource/Great_Mosque_of_Cirebon","Great Mosque of Cirebon"
"http://dbpedia.org/resource/Great_Mosque_of_Palembang","Great Mosque of Palembang"
"http://dbpedia.org/resource/Great_Mosque_of_Sumenep","Great Mosque of Sumenep"
"http://dbpedia.org/resource/Great_Mosque_of_Surakarta","Great Mosque of Surakarta"
"http://dbpedia.org/resource/Istiqlal_Mosque,_Jakarta","Istiqlal Mosque, Jakarta"
"http://dbpedia.org/resource/Kali_Pasir_Mosque","Kali Pasir Mosque"
"http://dbpedia.org/resource/Kasunyatan_Mosque","Kasunyatan Mosque"
"http://dbpedia.org/resource/Kauman_Great_Mosque","Kauman Great Mosque"
"http://dbpedia.org/resource/List_of_mosques_in_Indonesia","List of mosques in Indonesia"
"http://dbpedia.org/resource/Mantingan_Mosque","Mantingan Mosque"
"http://dbpedia.org/resource/Masjid_Muhammadan","Masjid Muhammadan"
"http://dbpedia.org/resource/Menara_Kudus_Mosque","Menara Kudus Mosque"
"http://dbpedia.org/resource/Sabilal_Muhtadin","Sabilal Muhtadin"
"http://dbpedia.org/resource/Saka_Tunggal_Mosque","Saka Tunggal Mosque"
"http://dbpedia.org/resource/Sultan_Suriansyah_Mosque","Sultan Suriansyah Mosque"
"http://dbpedia.org/resource/Sultan_of_Ternate_Mosque","Sultan of Ternate Mosque"
"http://dbpedia.org/resource/Sunan_Giri_Mosque","Sunan Giri Mosque"
"http://dbpedia.org/resource/Surau_Zainudiniah","Surau Zainudiniah"
"http://dbpedia.org/resource/Wapauwe_Old_Mosque","Wapauwe Old Mosque"
